{
  "$schema": "https://raw.githubusercontent.com/JanDeDobbeleer/oh-my-posh/main/themes/schema.json",
  "blocks": [
    {
      "alignment": "left",
      "newline": true,
      "segments": [
        {
          "foreground": "#ffbebc",
          "leading_diamond": "<#ff70a6> \ue200 </>",
          "properties": {
            "display_host": true
          },
          "style": "diamond",
          "template": "{{ .UserName }} <#ffffff>at</>",
          "type": "session"
        },
        {
          "foreground": "#bc93ff",
          "properties": {
            "time_format": "3:04:05 PM"
          },
          "style": "diamond",
          "template": " {{ .CurrentDate | date .Format }} ",
          "type": "time"
        },
        {
          "foreground": "#06aad5",
          "style": "plain",
          "template": "<#ffffff>go </>{{ if .Error }}{{ .Error }}{{ else }}{{ .Full }}{{ end }}<#ffffff></>",
          "type": "go"
        },
        {
          "foreground": "#925837",
          "style": "plain",
          "template": "<#ffffff>rust </>{{ if .Error }}{{ .Error }}{{ else }}{{ .Full }}{{ end }}<#ffffff></>",
          "type": "rust"
        },
        {
          "foreground": "#3C873A",
          "properties": {
            "fetch_package_manager": true,
            "npm_icon": " <#cc3a3a>\ue5fa</> ",
            "yarn_icon": " <#348cba>\ue6a7</>"
          },
          "style": "plain",
          "template": "<#ffffff>node </>{{ if .PackageManagerIcon }}{{ .PackageManagerIcon }} {{ end }}{{ .Full }}<#ffffff></>",
          "type": "node"
        },
        {
          "foreground": "#FFE873",
          "style": "plain",
          "template": "<#ffffff>python </>{{ if .Error }}{{ .Error }}{{ else }}{{ if .Venv }}{{ .Venv }} {{ end }}{{ .Full }}{{ end }}<#ffffff></>",
          "type": "python"
        },
        {
          "foreground": "#ec2729",
          "style": "plain",
          "template": "<#ffffff>java </>{{ if .Error }}{{ .Error }}{{ else }}{{ .Full }}{{ end }}<#ffffff></>",
          "type": "java"
        },
        {
          "foreground": "#0d6da8",
          "style": "plain",
          "template": "<#ffffff>dotnet </>{{ if .Unsupported }}\uf071{{ else }}{{ .Full }}{{ end }}<#ffffff></>",
          "type": "dotnet"
        },
        {
          "foreground": "#055b9c",
          "style": "plain",
          "template": "<#ffffff>dart </>{{ if .Error }}{{ .Error }}{{ else }}{{ .Full }}{{ end }}<#ffffff></>",
          "type": "dart"
        },
        {
          "foreground": "#ce092f",
          "style": "plain",
          "template": "<#ffffff>angular </>{{ if .Error }}{{ .Error }}{{ else }}{{ .Full }}{{ end }}<#ffffff></>",
          "type": "angular"
        },
        {
          "foreground": "#ffffff",
          "style": "plain",
          "template": "<#1e293b>nx </>{{ if .Error }}{{ .Error }}{{ else }}Nx {{ .Full }}{{ end }}<#1e293b></>",
          "type": "nx"
        },
        {
          "foreground": "#359a25",
          "style": "plain",
          "template": "<#ffffff>julia </>{{ if .Error }}{{ .Error }}{{ else }}{{ .Full }}{{ end }}<#ffffff></>",
          "type": "julia"
        },
        {
          "foreground": "#9c1006",
          "style": "plain",
          "template": "<#ffffff>ruby </>{{ if .Error }}{{ .Error }}{{ else }}{{ .Full }}{{ end }}<#ffffff></>",
          "type": "ruby"
        },
        {
          "foreground": "#5398c2",
          "style": "plain",
          "template": "<#ffffff>azfunc </>{{ if .Error }}{{ .Error }}{{ else }}{{ .Full }}{{ end }}<#ffffff></>",
          "type": "azfunc"
        },
        {
          "foreground": "#faa029",
          "style": "plain",
          "template": "<#ffffff>aws </>{{.Profile}}{{if .Region}}@{{.Region}}{{end}}<#ffffff></>",
          "type": "aws"
        },
        {
          "foreground": "#316ce4",
          "style": "plain",
          "template": "<#ffffff>kubectl </>{{.Context}}{{if .Namespace}} :: {{.Namespace}}{{end}}<#ffffff></>",
          "type": "kubectl"
        }
      ],
      "type": "prompt"
    },
    {
      "alignment": "right",
      "segments": [
        {
          "foreground": "#a9ffb4",
          "style": "plain",
          "type": "text"
        },
        {
          "foreground": "#a9ffb4",
          "foreground_templates": [
            "{{ if gt .Code 0 }}#ef5350{{ end }}"
          ],
          "properties": {
            "style": "dallas",
            "threshold": 0
          },
          "style": "diamond",
          "template": " {{ .FormattedMs }}s <#ffffff>\ue601</>",
          "type": "executiontime"
        },
        {
          "properties": {
            "root_icon": "\uf292 "
          },
          "style": "diamond",
          "template": " \uf0e7 ",
          "type": "root"
        },
        {
          "foreground": "#ee79d1",
          "properties": {
            "branch_icon": "\ue725 ",
            "fetch_stash_count": true,
            "fetch_status": true,
            "fetch_upstream_icon": true,
            "fetch_worktree_count": true
          },
          "style": "diamond",
          "template": " {{ .UpstreamIcon }}{{ .HEAD }}{{if .BranchStatus }} {{ .BranchStatus }}{{ end }}{{ if .Working.Changed }} \uf044 {{ .Working.String }}{{ end }}{{ if and (.Working.Changed) (.Staging.Changed) }} |{{ end }}{{ if .Staging.Changed }} \uf046 {{ .Staging.String }}{{ end }}{{ if gt .StashCount 0 }} \uf692 {{ .StashCount }}{{ end }} ",
          "type": "git"
        }
      ],
      "type": "prompt"
    },
    {
      "alignment": "left",
      "newline": true,
      "segments": [
        {
          "foreground": "#ffafd2",
          "leading_diamond": "<#00c7fc> \ue285 </>",
          "properties": {
            "folder_icon": "..",
            "folder_separator_icon": "</><#ffffff>:</>",
            "home_icon": "~",
            "style": "letter"
          },
          "style": "diamond",
          "template": "{{ .Path }} ",
          "trailing_diamond": "",
          "type": "path"
        },
        {
          "foreground": "#A9FFB4",
          "foreground_templates": [
            "{{ if gt .Code 0 }}#ef5350{{ end }}"
          ],
          "properties": {
            "always_enabled": true
          },
          "style": "plain",
          "template": "| ",
          "type": "exit"
        }
      ],
      "type": "prompt"
    }
  ],
  "console_title_template": "{{ .Folder }}",
  "transient_prompt": {
    "background": "transparent",
    "foreground": "#FEF5ED",
    "template": "\ue285 "
  },
  "version": 2
}
